EMMA HARDIN-PARKER: DATA ANALYSIS PORTFOLIO - CDC Data Exercise
…
 Significant        Significance_Status
 Length:675         Min.   :1          
 Class :character   1st Qu.:1          
 Mode  :character   Median :1          
                    Mean   :1          
                    3rd Qu.:1          
                    Max.   :1          
                    NA's   :621        

structure(filtered_copy)

# A tibble: 675 × 9
   `Year and Quarter` Topic    `Topic Subgroup` Indicator Race Ethnicity Categ…¹
   <chr>              <chr>    <chr>            <chr>     <chr>                 
 1 2024 Q1            Birth R… Age-specific Bi… 10-14 ye… Hispanic              
 2 2024 Q1            Birth R… Age-specific Bi… 10-14 ye… Non-Hispanic Black    
 3 2024 Q1            Birth R… Age-specific Bi… 10-14 ye… Non-Hispanic White    
 4 2024 Q1            Birth R… Age-specific Bi… 15-19 ye… Hispanic              
 5 2024 Q1            Birth R… Age-specific Bi… 15-19 ye… Non-Hispanic Black    
 6 2024 Q1            Birth R… Age-specific Bi… 15-19 ye… Non-Hispanic White    
 7 2024 Q1            Birth R… Age-specific Bi… 20-24 ye… Hispanic              
 8 2024 Q1            Birth R… Age-specific Bi… 20-24 ye… Non-Hispanic Black    
 9 2024 Q1            Birth R… Age-specific Bi… 20-24 ye… Non-Hispanic White    
10 2024 Q1            Birth R… Age-specific Bi… 25-29 ye… Hispanic              
# ℹ 665 more rows
# ℹ abbreviated name: ¹​`Race Ethnicity Category`
# ℹ 4 more variables: Rate <dbl>, Unit <chr>, Significant <chr>,
#   Significance_Status <dbl>
…
 Significant        Significance_Status
 Length:675         Min.   :1          
 Class :character   1st Qu.:1          
 Mode  :character   Median :1          
                    Mean   :1          
                    3rd Qu.:1          
                    Max.   :1          
                    NA's   :621        

structure(filtered_race)

# A tibble: 675 × 9
   `Year and Quarter` Topic    `Topic Subgroup` Indicator Race Ethnicity Categ…¹
   <chr>              <chr>    <chr>            <chr>     <chr>                 
 1 2024 Q1            Birth R… Age-specific Bi… 10-14 ye… Hispanic              
 2 2024 Q1            Birth R… Age-specific Bi… 10-14 ye… Non-Hispanic Black    
 3 2024 Q1            Birth R… Age-specific Bi… 10-14 ye… Non-Hispanic White    
 4 2024 Q1            Birth R… Age-specific Bi… 15-19 ye… Hispanic              
 5 2024 Q1            Birth R… Age-specific Bi… 15-19 ye… Non-Hispanic Black    
 6 2024 Q1            Birth R… Age-specific Bi… 15-19 ye… Non-Hispanic White    
 7 2024 Q1            Birth R… Age-specific Bi… 20-24 ye… Hispanic              
 8 2024 Q1            Birth R… Age-specific Bi… 20-24 ye… Non-Hispanic Black    
 9 2024 Q1            Birth R… Age-specific Bi… 20-24 ye… Non-Hispanic White    
10 2024 Q1            Birth R… Age-specific Bi… 25-29 ye… Hispanic              
# ℹ 665 more rows
# ℹ abbreviated name: ¹​`Race Ethnicity Category`
# ℹ 4 more variables: Rate <dbl>, Unit <chr>, Significant <chr>,
#   Significance_Status <dbl>
…
